<svg xmlns="http://www.w3.org/2000/svg" width="8.083" height="14.334" viewBox="0 0 8.083 14.334">
    <defs>
        <style>
            .cls-1{fill:#1fa8e5;stroke:#1fa8e5}
        </style>
    </defs>
    <path id="Path_1576" d="M1.423 91.583l5.539-5.539a.417.417 0 0 0-.589-.589l-6.25 6.25a.416.416 0 0 0 0 .589l6.25 6.25a.417.417 0 0 0 .589-.589l-5.539-5.539z" class="cls-1" data-name="Path 1576" transform="translate(.499 -84.833)"/>
</svg>
